{
    "Tile": {
        "grid": 4533,
        "tile_type": 0,
        "textureEnum": 38,
        "connectedObjectName": ""
    },
    "Tile": {
        "grid": 9043,
        "tile_type": 0,
        "textureEnum": 38,
        "connectedObjectName": ""
    },
    "Tile": {
        "grid": 8414,
        "tile_type": 0,
        "textureEnum": 38,
        "connectedObjectName": ""
    },
    "Tile": {
        "grid": 4560,
        "tile_type": 0,
        "textureEnum": 38,
        "connectedObjectName": ""
    },
    "Tile": {
        "grid": 9532,
        "tile_type": 0,
        "textureEnum": 38,
        "connectedObjectName": ""
    },
    "Tile": {
        "grid": 4747,
        "tile_type": 0,
        "textureEnum": 38,
        "connectedObjectName": ""
    },
    "Tile": {
        "grid": 9052,
        "tile_type": 0,
        "textureEnum": 38,
        "connectedObjectName": ""
    },
    "Tile": {
        "grid": 8260,
        "tile_type": 0,
        "textureEnum": 38,
        "connectedObjectName": ""
    },
    "Tile": {
        "grid": 4531,
        "tile_type": 0,
        "textureEnum": 38,
        "connectedObjectName": ""
    },
    "Tile": {
        "grid": 7930,
        "tile_type": 0,
        "textureEnum": 38,
        "connectedObjectName": ""
    },
    "Tile": {
        "grid": 5387,
        "tile_type": 0,
        "textureEnum": 38,
        "connectedObjectName": ""
    },
    "Tile": {
        "grid": 8906,
        "tile_type": 0,
        "textureEnum": 38,
        "connectedObjectName": ""
    },
    "Tile": {
        "grid": 7934,
        "tile_type": 0,
        "textureEnum": 38,
        "connectedObjectName": ""
    },
    "Tile": {
        "grid": 6988,
        "tile_type": 0,
        "textureEnum": 38,
        "connectedObjectName": ""
    },
    "Tile": {
        "grid": 7935,
        "tile_type": 0,
        "textureEnum": 38,
        "connectedObjectName": ""
    },
    "Tile": {
        "grid": 9504,
        "tile_type": 0,
        "textureEnum": 38,
        "connectedObjectName": ""
    },
    "Tile": {
        "grid": 7938,
        "tile_type": 0,
        "textureEnum": 38,
        "connectedObjectName": ""
    },
    "Tile": {
        "grid": 4561,
        "tile_type": 0,
        "textureEnum": 38,
        "connectedObjectName": ""
    },
    "Tile": {
        "grid": 8577,
        "tile_type": 0,
        "textureEnum": 38,
        "connectedObjectName": ""
    },
    "Tile": {
        "grid": 8250,
        "tile_type": 0,
        "textureEnum": 38,
        "connectedObjectName": ""
    },
    "Tile": {
        "grid": 7939,
        "tile_type": 0,
        "textureEnum": 38,
        "connectedObjectName": ""
    },
    "Tile": {
        "grid": 4554,
        "tile_type": 0,
        "textureEnum": 38,
        "connectedObjectName": ""
    },
    "Tile": {
        "grid": 7940,
        "tile_type": 0,
        "textureEnum": 38,
        "connectedObjectName": ""
    },
    "Tile": {
        "grid": 9363,
        "tile_type": 0,
        "textureEnum": 38,
        "connectedObjectName": ""
    },
    "Tile": {
        "grid": 9492,
        "tile_type": 0,
        "textureEnum": 38,
        "connectedObjectName": ""
    },
    "Tile": {
        "grid": 7942,
        "tile_type": 0,
        "textureEnum": 38,
        "connectedObjectName": ""
    },
    "Tile": {
        "grid": 5171,
        "tile_type": 0,
        "textureEnum": 38,
        "connectedObjectName": ""
    },
    "Tile": {
        "grid": 9202,
        "tile_type": 0,
        "textureEnum": 38,
        "connectedObjectName": ""
    },
    "Tile": {
        "grid": 4537,
        "tile_type": 0,
        "textureEnum": 38,
        "connectedObjectName": ""
    },
    "Tile": {
        "grid": 9541,
        "tile_type": 0,
        "textureEnum": 38,
        "connectedObjectName": ""
    },
    "Tile": {
        "grid": 7891,
        "tile_type": 0,
        "textureEnum": 38,
        "connectedObjectName": ""
    },
    "Tile": {
        "grid": 5867,
        "tile_type": 0,
        "textureEnum": 38,
        "connectedObjectName": ""
    },
    "Tile": {
        "grid": 9542,
        "tile_type": 0,
        "textureEnum": 38,
        "connectedObjectName": ""
    },
    "Tile": {
        "grid": 5868,
        "tile_type": 0,
        "textureEnum": 38,
        "connectedObjectName": ""
    },
    "Tile": {
        "grid": 8426,
        "tile_type": 0,
        "textureEnum": 38,
        "connectedObjectName": ""
    },
    "Tile": {
        "grid": 6188,
        "tile_type": 0,
        "textureEnum": 38,
        "connectedObjectName": ""
    },
    "Tile": {
        "grid": 9205,
        "tile_type": 0,
        "textureEnum": 38,
        "connectedObjectName": ""
    },
    "Tile": {
        "grid": 9498,
        "tile_type": 0,
        "textureEnum": 38,
        "connectedObjectName": ""
    },
    "Tile": {
        "grid": 8566,
        "tile_type": 0,
        "textureEnum": 38,
        "connectedObjectName": ""
    },
    "Tile": {
        "grid": 9521,
        "tile_type": 0,
        "textureEnum": 38,
        "connectedObjectName": ""
    },
    "Tile": {
        "grid": 7943,
        "tile_type": 0,
        "textureEnum": 38,
        "connectedObjectName": ""
    },
    "Tile": {
        "grid": 4907,
        "tile_type": 0,
        "textureEnum": 38,
        "connectedObjectName": ""
    },
    "Tile": {
        "grid": 6931,
        "tile_type": 0,
        "textureEnum": 38,
        "connectedObjectName": ""
    },
    "Tile": {
        "grid": 8892,
        "tile_type": 0,
        "textureEnum": 38,
        "connectedObjectName": ""
    },
    "Tile": {
        "grid": 7298,
        "tile_type": 0,
        "textureEnum": 38,
        "connectedObjectName": ""
    },
    "Tile": {
        "grid": 9519,
        "tile_type": 0,
        "textureEnum": 38,
        "connectedObjectName": ""
    },
    "Tile": {
        "grid": 7945,
        "tile_type": 0,
        "textureEnum": 38,
        "connectedObjectName": ""
    },
    "Tile": {
        "grid": 5971,
        "tile_type": 0,
        "textureEnum": 38,
        "connectedObjectName": ""
    },
    "Tile": {
        "grid": 9653,
        "tile_type": 0,
        "textureEnum": 38,
        "connectedObjectName": ""
    },
    "Tile": {
        "grid": 8904,
        "tile_type": 0,
        "textureEnum": 38,
        "connectedObjectName": ""
    },
    "Tile": {
        "grid": 5331,
        "tile_type": 0,
        "textureEnum": 38,
        "connectedObjectName": ""
    },
    "Tile": {
        "grid": 9042,
        "tile_type": 0,
        "textureEnum": 38,
        "connectedObjectName": ""
    },
    "Tile": {
        "grid": 9685,
        "tile_type": 0,
        "textureEnum": 38,
        "connectedObjectName": ""
    },
    "Tile": {
        "grid": 4539,
        "tile_type": 0,
        "textureEnum": 38,
        "connectedObjectName": ""
    },
    "Tile": {
        "grid": 4540,
        "tile_type": 0,
        "textureEnum": 38,
        "connectedObjectName": ""
    },
    "Tile": {
        "grid": 4556,
        "tile_type": 0,
        "textureEnum": 38,
        "connectedObjectName": ""
    },
    "Tile": {
        "grid": 9062,
        "tile_type": 0,
        "textureEnum": 38,
        "connectedObjectName": ""
    },
    "Tile": {
        "grid": 6611,
        "tile_type": 0,
        "textureEnum": 38,
        "connectedObjectName": ""
    },
    "Tile": {
        "grid": 4587,
        "tile_type": 0,
        "textureEnum": 38,
        "connectedObjectName": ""
    },
    "Tile": {
        "grid": 7623,
        "tile_type": 0,
        "textureEnum": 38,
        "connectedObjectName": ""
    },
    "Tile": {
        "grid": 4545,
        "tile_type": 0,
        "textureEnum": 38,
        "connectedObjectName": ""
    },
    "Tile": {
        "grid": 7307,
        "tile_type": 0,
        "textureEnum": 38,
        "connectedObjectName": ""
    },
    "Tile": {
        "grid": 5491,
        "tile_type": 0,
        "textureEnum": 38,
        "connectedObjectName": ""
    },
    "Tile": {
        "grid": 9220,
        "tile_type": 0,
        "textureEnum": 38,
        "connectedObjectName": ""
    },
    "Tile": {
        "grid": 4536,
        "tile_type": 0,
        "textureEnum": 38,
        "connectedObjectName": ""
    },
    "Tile": {
        "grid": 6828,
        "tile_type": 0,
        "textureEnum": 38,
        "connectedObjectName": ""
    },
    "Tile": {
        "grid": 9362,
        "tile_type": 0,
        "textureEnum": 38,
        "connectedObjectName": ""
    },
    "Tile": {
        "grid": 9059,
        "tile_type": 0,
        "textureEnum": 38,
        "connectedObjectName": ""
    },
    "Tile": {
        "grid": 7457,
        "tile_type": 0,
        "textureEnum": 38,
        "connectedObjectName": ""
    },
    "Tile": {
        "grid": 7731,
        "tile_type": 0,
        "textureEnum": 38,
        "connectedObjectName": ""
    },
    "Tile": {
        "grid": 8586,
        "tile_type": 0,
        "textureEnum": 38,
        "connectedObjectName": ""
    },
    "Tile": {
        "grid": 7614,
        "tile_type": 0,
        "textureEnum": 38,
        "connectedObjectName": ""
    },
    "Tile": {
        "grid": 9702,
        "tile_type": 0,
        "textureEnum": 38,
        "connectedObjectName": ""
    },
    "Tile": {
        "grid": 7571,
        "tile_type": 0,
        "textureEnum": 38,
        "connectedObjectName": ""
    },
    "Tile": {
        "grid": 5547,
        "tile_type": 0,
        "textureEnum": 38,
        "connectedObjectName": ""
    },
    "Tile": {
        "grid": 8746,
        "tile_type": 0,
        "textureEnum": 38,
        "connectedObjectName": ""
    },
    "Tile": {
        "grid": 7411,
        "tile_type": 0,
        "textureEnum": 38,
        "connectedObjectName": ""
    },
    "Tile": {
        "grid": 5388,
        "tile_type": 0,
        "textureEnum": 38,
        "connectedObjectName": ""
    },
    "Tile": {
        "grid": 7251,
        "tile_type": 0,
        "textureEnum": 38,
        "connectedObjectName": ""
    },
    "Tile": {
        "grid": 5227,
        "tile_type": 0,
        "textureEnum": 38,
        "connectedObjectName": ""
    },
    "Tile": {
        "grid": 6451,
        "tile_type": 0,
        "textureEnum": 38,
        "connectedObjectName": ""
    },
    "Tile": {
        "grid": 7463,
        "tile_type": 0,
        "textureEnum": 38,
        "connectedObjectName": ""
    },
    "Tile": {
        "grid": 6291,
        "tile_type": 0,
        "textureEnum": 38,
        "connectedObjectName": ""
    },
    "Tile": {
        "grid": 7303,
        "tile_type": 0,
        "textureEnum": 38,
        "connectedObjectName": ""
    },
    "Tile": {
        "grid": 6131,
        "tile_type": 0,
        "textureEnum": 38,
        "connectedObjectName": ""
    },
    "Tile": {
        "grid": 9493,
        "tile_type": 0,
        "textureEnum": 38,
        "connectedObjectName": ""
    },
    "Tile": {
        "grid": 5811,
        "tile_type": 0,
        "textureEnum": 38,
        "connectedObjectName": ""
    },
    "Tile": {
        "grid": 9064,
        "tile_type": 0,
        "textureEnum": 38,
        "connectedObjectName": ""
    },
    "Tile": {
        "grid": 5651,
        "tile_type": 0,
        "textureEnum": 38,
        "connectedObjectName": ""
    },
    "Tile": {
        "grid": 5011,
        "tile_type": 0,
        "textureEnum": 38,
        "connectedObjectName": ""
    },
    "Tile": {
        "grid": 4851,
        "tile_type": 0,
        "textureEnum": 38,
        "connectedObjectName": ""
    },
    "Tile": {
        "grid": 4691,
        "tile_type": 0,
        "textureEnum": 38,
        "connectedObjectName": ""
    },
    "Tile": {
        "grid": 4574,
        "tile_type": 0,
        "textureEnum": 38,
        "connectedObjectName": ""
    },
    "Tile": {
        "grid": 4532,
        "tile_type": 0,
        "textureEnum": 38,
        "connectedObjectName": ""
    },
    "Tile": {
        "grid": 6347,
        "tile_type": 0,
        "textureEnum": 38,
        "connectedObjectName": ""
    },
    "Tile": {
        "grid": 9704,
        "tile_type": 0,
        "textureEnum": 38,
        "connectedObjectName": ""
    },
    "Tile": {
        "grid": 4534,
        "tile_type": 0,
        "textureEnum": 38,
        "connectedObjectName": ""
    },
    "Tile": {
        "grid": 4535,
        "tile_type": 0,
        "textureEnum": 38,
        "connectedObjectName": ""
    },
    "Tile": {
        "grid": 4538,
        "tile_type": 0,
        "textureEnum": 38,
        "connectedObjectName": ""
    },
    "Tile": {
        "grid": 4541,
        "tile_type": 0,
        "textureEnum": 38,
        "connectedObjectName": ""
    },
    "Tile": {
        "grid": 4542,
        "tile_type": 0,
        "textureEnum": 38,
        "connectedObjectName": ""
    },
    "Tile": {
        "grid": 4543,
        "tile_type": 0,
        "textureEnum": 38,
        "connectedObjectName": ""
    },
    "Tile": {
        "grid": 8256,
        "tile_type": 0,
        "textureEnum": 38,
        "connectedObjectName": ""
    },
    "Tile": {
        "grid": 9691,
        "tile_type": 0,
        "textureEnum": 38,
        "connectedObjectName": ""
    },
    "Tile": {
        "grid": 4544,
        "tile_type": 0,
        "textureEnum": 38,
        "connectedObjectName": ""
    },
    "Tile": {
        "grid": 4546,
        "tile_type": 0,
        "textureEnum": 38,
        "connectedObjectName": ""
    },
    "Tile": {
        "grid": 7787,
        "tile_type": 0,
        "textureEnum": 38,
        "connectedObjectName": ""
    },
    "Tile": {
        "grid": 9518,
        "tile_type": 0,
        "textureEnum": 38,
        "connectedObjectName": ""
    },
    "Tile": {
        "grid": 4547,
        "tile_type": 0,
        "textureEnum": 38,
        "connectedObjectName": ""
    },
    "Tile": {
        "grid": 4548,
        "tile_type": 0,
        "textureEnum": 38,
        "connectedObjectName": ""
    },
    "Tile": {
        "grid": 4549,
        "tile_type": 0,
        "textureEnum": 38,
        "connectedObjectName": ""
    },
    "Tile": {
        "grid": 4550,
        "tile_type": 0,
        "textureEnum": 38,
        "connectedObjectName": ""
    },
    "Tile": {
        "grid": 9196,
        "tile_type": 0,
        "textureEnum": 38,
        "connectedObjectName": ""
    },
    "Tile": {
        "grid": 4551,
        "tile_type": 0,
        "textureEnum": 38,
        "connectedObjectName": ""
    },
    "Tile": {
        "grid": 9507,
        "tile_type": 0,
        "textureEnum": 38,
        "connectedObjectName": ""
    },
    "Tile": {
        "grid": 4552,
        "tile_type": 0,
        "textureEnum": 38,
        "connectedObjectName": ""
    },
    "Tile": {
        "grid": 8263,
        "tile_type": 0,
        "textureEnum": 38,
        "connectedObjectName": ""
    },
    "Tile": {
        "grid": 4553,
        "tile_type": 0,
        "textureEnum": 38,
        "connectedObjectName": ""
    },
    "Tile": {
        "grid": 9525,
        "tile_type": 0,
        "textureEnum": 38,
        "connectedObjectName": ""
    },
    "Tile": {
        "grid": 4555,
        "tile_type": 0,
        "textureEnum": 38,
        "connectedObjectName": ""
    },
    "Tile": {
        "grid": 4557,
        "tile_type": 0,
        "textureEnum": 38,
        "connectedObjectName": ""
    },
    "Tile": {
        "grid": 9195,
        "tile_type": 0,
        "textureEnum": 38,
        "connectedObjectName": ""
    },
    "Tile": {
        "grid": 9682,
        "tile_type": 0,
        "textureEnum": 38,
        "connectedObjectName": ""
    },
    "Tile": {
        "grid": 7148,
        "tile_type": 0,
        "textureEnum": 38,
        "connectedObjectName": ""
    },
    "Tile": {
        "grid": 9361,
        "tile_type": 0,
        "textureEnum": 38,
        "connectedObjectName": ""
    },
    "Tile": {
        "grid": 5068,
        "tile_type": 0,
        "textureEnum": 38,
        "connectedObjectName": ""
    },
    "Tile": {
        "grid": 7458,
        "tile_type": 0,
        "textureEnum": 38,
        "connectedObjectName": ""
    },
    "Tile": {
        "grid": 4588,
        "tile_type": 0,
        "textureEnum": 38,
        "connectedObjectName": ""
    },
    "Tile": {
        "grid": 9687,
        "tile_type": 0,
        "textureEnum": 38,
        "connectedObjectName": ""
    },
    "Tile": {
        "grid": 4564,
        "tile_type": 0,
        "textureEnum": 38,
        "connectedObjectName": ""
    },
    "Tile": {
        "grid": 7777,
        "tile_type": 0,
        "textureEnum": 38,
        "connectedObjectName": ""
    },
    "Tile": {
        "grid": 4571,
        "tile_type": 0,
        "textureEnum": 38,
        "connectedObjectName": ""
    },
    "Tile": {
        "grid": 8587,
        "tile_type": 0,
        "textureEnum": 38,
        "connectedObjectName": ""
    },
    "Tile": {
        "grid": 4908,
        "tile_type": 0,
        "textureEnum": 38,
        "connectedObjectName": ""
    },
    "Tile": {
        "grid": 9514,
        "tile_type": 0,
        "textureEnum": 38,
        "connectedObjectName": ""
    },
    "Tile": {
        "grid": 6187,
        "tile_type": 0,
        "textureEnum": 38,
        "connectedObjectName": ""
    },
    "Tile": {
        "grid": 5228,
        "tile_type": 0,
        "textureEnum": 38,
        "connectedObjectName": ""
    },
    "Tile": {
        "grid": 9201,
        "tile_type": 0,
        "textureEnum": 38,
        "connectedObjectName": ""
    },
    "Tile": {
        "grid": 9497,
        "tile_type": 0,
        "textureEnum": 38,
        "connectedObjectName": ""
    },
    "Tile": {
        "grid": 8565,
        "tile_type": 0,
        "textureEnum": 38,
        "connectedObjectName": ""
    },
    "Tile": {
        "grid": 4577,
        "tile_type": 0,
        "textureEnum": 38,
        "connectedObjectName": ""
    },
    "Tile": {
        "grid": 9199,
        "tile_type": 0,
        "textureEnum": 38,
        "connectedObjectName": ""
    },
    "Tile": {
        "grid": 9681,
        "tile_type": 0,
        "textureEnum": 38,
        "connectedObjectName": ""
    },
    "Tile": {
        "grid": 5708,
        "tile_type": 0,
        "textureEnum": 38,
        "connectedObjectName": ""
    },
    "Tile": {
        "grid": 8051,
        "tile_type": 0,
        "textureEnum": 38,
        "connectedObjectName": ""
    },
    "Tile": {
        "grid": 9039,
        "tile_type": 0,
        "textureEnum": 38,
        "connectedObjectName": ""
    },
    "Tile": {
        "grid": 6987,
        "tile_type": 0,
        "textureEnum": 38,
        "connectedObjectName": ""
    },
    "Tile": {
        "grid": 5548,
        "tile_type": 0,
        "textureEnum": 38,
        "connectedObjectName": ""
    },
    "Tile": {
        "grid": 7781,
        "tile_type": 0,
        "textureEnum": 38,
        "connectedObjectName": ""
    },
    "Tile": {
        "grid": 9520,
        "tile_type": 0,
        "textureEnum": 38,
        "connectedObjectName": ""
    },
    "Tile": {
        "grid": 6667,
        "tile_type": 0,
        "textureEnum": 38,
        "connectedObjectName": ""
    },
    "Tile": {
        "grid": 9683,
        "tile_type": 0,
        "textureEnum": 38,
        "connectedObjectName": ""
    },
    "Tile": {
        "grid": 4581,
        "tile_type": 0,
        "textureEnum": 38,
        "connectedObjectName": ""
    },
    "Tile": {
        "grid": 4580,
        "tile_type": 0,
        "textureEnum": 38,
        "connectedObjectName": ""
    },
    "Tile": {
        "grid": 8211,
        "tile_type": 0,
        "textureEnum": 38,
        "connectedObjectName": ""
    },
    "Tile": {
        "grid": 9223,
        "tile_type": 0,
        "textureEnum": 38,
        "connectedObjectName": ""
    },
    "Tile": {
        "grid": 4563,
        "tile_type": 0,
        "textureEnum": 38,
        "connectedObjectName": ""
    },
    "Tile": {
        "grid": 8878,
        "tile_type": 0,
        "textureEnum": 38,
        "connectedObjectName": ""
    },
    "Tile": {
        "grid": 9501,
        "tile_type": 0,
        "textureEnum": 38,
        "connectedObjectName": ""
    },
    "Tile": {
        "grid": 8880,
        "tile_type": 0,
        "textureEnum": 38,
        "connectedObjectName": ""
    },
    "Tile": {
        "grid": 4578,
        "tile_type": 0,
        "textureEnum": 38,
        "connectedObjectName": ""
    },
    "Tile": {
        "grid": 8887,
        "tile_type": 0,
        "textureEnum": 38,
        "connectedObjectName": ""
    },
    "Tile": {
        "grid": 4584,
        "tile_type": 0,
        "textureEnum": 38,
        "connectedObjectName": ""
    },
    "Tile": {
        "grid": 8745,
        "tile_type": 0,
        "textureEnum": 38,
        "connectedObjectName": ""
    },
    "Tile": {
        "grid": 4585,
        "tile_type": 0,
        "textureEnum": 38,
        "connectedObjectName": ""
    },
    "Tile": {
        "grid": 9358,
        "tile_type": 0,
        "textureEnum": 38,
        "connectedObjectName": ""
    },
    "Tile": {
        "grid": 9680,
        "tile_type": 0,
        "textureEnum": 38,
        "connectedObjectName": ""
    },
    "Tile": {
        "grid": 8893,
        "tile_type": 0,
        "textureEnum": 38,
        "connectedObjectName": ""
    },
    "Tile": {
        "grid": 4558,
        "tile_type": 0,
        "textureEnum": 38,
        "connectedObjectName": ""
    },
    "Tile": {
        "grid": 4559,
        "tile_type": 0,
        "textureEnum": 38,
        "connectedObjectName": ""
    },
    "Tile": {
        "grid": 7300,
        "tile_type": 0,
        "textureEnum": 38,
        "connectedObjectName": ""
    },
    "Tile": {
        "grid": 9228,
        "tile_type": 0,
        "textureEnum": 38,
        "connectedObjectName": ""
    },
    "Tile": {
        "grid": 4562,
        "tile_type": 0,
        "textureEnum": 38,
        "connectedObjectName": ""
    },
    "Tile": {
        "grid": 9208,
        "tile_type": 0,
        "textureEnum": 38,
        "connectedObjectName": ""
    },
    "Tile": {
        "grid": 8265,
        "tile_type": 0,
        "textureEnum": 38,
        "connectedObjectName": ""
    },
    "Tile": {
        "grid": 9381,
        "tile_type": 0,
        "textureEnum": 38,
        "connectedObjectName": ""
    },
    "Tile": {
        "grid": 7622,
        "tile_type": 0,
        "textureEnum": 38,
        "connectedObjectName": ""
    },
    "Tile": {
        "grid": 4565,
        "tile_type": 0,
        "textureEnum": 38,
        "connectedObjectName": ""
    },
    "Tile": {
        "grid": 8581,
        "tile_type": 0,
        "textureEnum": 38,
        "connectedObjectName": ""
    },
    "Tile": {
        "grid": 8254,
        "tile_type": 0,
        "textureEnum": 38,
        "connectedObjectName": ""
    },
    "Tile": {
        "grid": 4566,
        "tile_type": 0,
        "textureEnum": 38,
        "connectedObjectName": ""
    },
    "Tile": {
        "grid": 4567,
        "tile_type": 0,
        "textureEnum": 38,
        "connectedObjectName": ""
    },
    "Tile": {
        "grid": 4568,
        "tile_type": 0,
        "textureEnum": 38,
        "connectedObjectName": ""
    },
    "Tile": {
        "grid": 7628,
        "tile_type": 0,
        "textureEnum": 38,
        "connectedObjectName": ""
    },
    "Tile": {
        "grid": 7773,
        "tile_type": 0,
        "textureEnum": 38,
        "connectedObjectName": ""
    },
    "Tile": {
        "grid": 4569,
        "tile_type": 0,
        "textureEnum": 38,
        "connectedObjectName": ""
    },
    "Tile": {
        "grid": 9509,
        "tile_type": 0,
        "textureEnum": 38,
        "connectedObjectName": ""
    },
    "Tile": {
        "grid": 4570,
        "tile_type": 0,
        "textureEnum": 38,
        "connectedObjectName": ""
    },
    "Tile": {
        "grid": 9357,
        "tile_type": 0,
        "textureEnum": 38,
        "connectedObjectName": ""
    },
    "Tile": {
        "grid": 4572,
        "tile_type": 0,
        "textureEnum": 38,
        "connectedObjectName": ""
    },
    "Tile": {
        "grid": 8733,
        "tile_type": 0,
        "textureEnum": 38,
        "connectedObjectName": ""
    },
    "Tile": {
        "grid": 8588,
        "tile_type": 0,
        "textureEnum": 38,
        "connectedObjectName": ""
    },
    "Tile": {
        "grid": 4573,
        "tile_type": 0,
        "textureEnum": 38,
        "connectedObjectName": ""
    },
    "Tile": {
        "grid": 9354,
        "tile_type": 0,
        "textureEnum": 38,
        "connectedObjectName": ""
    },
    "Tile": {
        "grid": 8422,
        "tile_type": 0,
        "textureEnum": 38,
        "connectedObjectName": ""
    },
    "Tile": {
        "grid": 4575,
        "tile_type": 0,
        "textureEnum": 38,
        "connectedObjectName": ""
    },
    "Tile": {
        "grid": 9531,
        "tile_type": 0,
        "textureEnum": 38,
        "connectedObjectName": ""
    },
    "Tile": {
        "grid": 4576,
        "tile_type": 0,
        "textureEnum": 38,
        "connectedObjectName": ""
    },
    "Tile": {
        "grid": 4579,
        "tile_type": 0,
        "textureEnum": 38,
        "connectedObjectName": ""
    },
    "Tile": {
        "grid": 8734,
        "tile_type": 0,
        "textureEnum": 38,
        "connectedObjectName": ""
    },
    "Tile": {
        "grid": 4582,
        "tile_type": 0,
        "textureEnum": 38,
        "connectedObjectName": ""
    },
    "Tile": {
        "grid": 8413,
        "tile_type": 0,
        "textureEnum": 38,
        "connectedObjectName": ""
    },
    "Tile": {
        "grid": 4583,
        "tile_type": 0,
        "textureEnum": 38,
        "connectedObjectName": ""
    },
    "Tile": {
        "grid": 4586,
        "tile_type": 0,
        "textureEnum": 38,
        "connectedObjectName": ""
    },
    "Tile": {
        "grid": 9684,
        "tile_type": 0,
        "textureEnum": 38,
        "connectedObjectName": ""
    },
    "Tile": {
        "grid": 9516,
        "tile_type": 0,
        "textureEnum": 38,
        "connectedObjectName": ""
    },
    "Tile": {
        "grid": 9387,
        "tile_type": 0,
        "textureEnum": 38,
        "connectedObjectName": ""
    },
    "Tile": {
        "grid": 5067,
        "tile_type": 0,
        "textureEnum": 38,
        "connectedObjectName": ""
    },
    "Tile": {
        "grid": 7465,
        "tile_type": 0,
        "textureEnum": 38,
        "connectedObjectName": ""
    },
    "Tile": {
        "grid": 5707,
        "tile_type": 0,
        "textureEnum": 38,
        "connectedObjectName": ""
    },
    "Tile": {
        "grid": 6027,
        "tile_type": 0,
        "textureEnum": 38,
        "connectedObjectName": ""
    },
    "Tile": {
        "grid": 7143,
        "tile_type": 0,
        "textureEnum": 38,
        "connectedObjectName": ""
    },
    "Tile": {
        "grid": 9517,
        "tile_type": 0,
        "textureEnum": 38,
        "connectedObjectName": ""
    },
    "Tile": {
        "grid": 6507,
        "tile_type": 0,
        "textureEnum": 38,
        "connectedObjectName": ""
    },
    "Tile": {
        "grid": 6348,
        "tile_type": 0,
        "textureEnum": 38,
        "connectedObjectName": ""
    },
    "Tile": {
        "grid": 6508,
        "tile_type": 0,
        "textureEnum": 38,
        "connectedObjectName": ""
    },
    "Tile": {
        "grid": 6668,
        "tile_type": 0,
        "textureEnum": 38,
        "connectedObjectName": ""
    },
    "Tile": {
        "grid": 9529,
        "tile_type": 0,
        "textureEnum": 38,
        "connectedObjectName": ""
    },
    "Tile": {
        "grid": 7308,
        "tile_type": 0,
        "textureEnum": 38,
        "connectedObjectName": ""
    },
    "Tile": {
        "grid": 7468,
        "tile_type": 0,
        "textureEnum": 38,
        "connectedObjectName": ""
    },
    "Tile": {
        "grid": 7788,
        "tile_type": 0,
        "textureEnum": 38,
        "connectedObjectName": ""
    },
    "Tile": {
        "grid": 7948,
        "tile_type": 0,
        "textureEnum": 38,
        "connectedObjectName": ""
    },
    "Tile": {
        "grid": 8249,
        "tile_type": 0,
        "textureEnum": 38,
        "connectedObjectName": ""
    },
    "Tile": {
        "grid": 7467,
        "tile_type": 0,
        "textureEnum": 38,
        "connectedObjectName": ""
    },
    "Tile": {
        "grid": 7147,
        "tile_type": 0,
        "textureEnum": 38,
        "connectedObjectName": ""
    },
    "Tile": {
        "grid": 8095,
        "tile_type": 0,
        "textureEnum": 38,
        "connectedObjectName": ""
    },
    "Tile": {
        "grid": 9689,
        "tile_type": 0,
        "textureEnum": 38,
        "connectedObjectName": ""
    },
    "Tile": {
        "grid": 6827,
        "tile_type": 0,
        "textureEnum": 38,
        "connectedObjectName": ""
    },
    "Tile": {
        "grid": 9369,
        "tile_type": 0,
        "textureEnum": 38,
        "connectedObjectName": ""
    },
    "Tile": {
        "grid": 7775,
        "tile_type": 0,
        "textureEnum": 38,
        "connectedObjectName": ""
    },
    "Tile": {
        "grid": 7947,
        "tile_type": 0,
        "textureEnum": 38,
        "connectedObjectName": ""
    },
    "Tile": {
        "grid": 8744,
        "tile_type": 0,
        "textureEnum": 38,
        "connectedObjectName": ""
    },
    "Tile": {
        "grid": 7627,
        "tile_type": 0,
        "textureEnum": 38,
        "connectedObjectName": ""
    },
    "Tile": {
        "grid": 8424,
        "tile_type": 0,
        "textureEnum": 38,
        "connectedObjectName": ""
    },
    "Tile": {
        "grid": 4748,
        "tile_type": 0,
        "textureEnum": 38,
        "connectedObjectName": ""
    },
    "Tile": {
        "grid": 6028,
        "tile_type": 0,
        "textureEnum": 38,
        "connectedObjectName": ""
    },
    "Tile": {
        "grid": 9510,
        "tile_type": 0,
        "textureEnum": 38,
        "connectedObjectName": ""
    },
    "Tile": {
        "grid": 9686,
        "tile_type": 0,
        "textureEnum": 38,
        "connectedObjectName": ""
    },
    "Tile": {
        "grid": 9678,
        "tile_type": 0,
        "textureEnum": 38,
        "connectedObjectName": ""
    },
    "Tile": {
        "grid": 9679,
        "tile_type": 0,
        "textureEnum": 38,
        "connectedObjectName": ""
    },
    "Tile": {
        "grid": 6771,
        "tile_type": 0,
        "textureEnum": 38,
        "connectedObjectName": ""
    },
    "Tile": {
        "grid": 9674,
        "tile_type": 0,
        "textureEnum": 38,
        "connectedObjectName": ""
    },
    "Tile": {
        "grid": 7783,
        "tile_type": 0,
        "textureEnum": 38,
        "connectedObjectName": ""
    },
    "Tile": {
        "grid": 7091,
        "tile_type": 0,
        "textureEnum": 38,
        "connectedObjectName": ""
    },
    "Tile": {
        "grid": 8732,
        "tile_type": 0,
        "textureEnum": 38,
        "connectedObjectName": ""
    },
    "Tile": {
        "grid": 8103,
        "tile_type": 0,
        "textureEnum": 38,
        "connectedObjectName": ""
    },
    "Tile": {
        "grid": 8371,
        "tile_type": 0,
        "textureEnum": 38,
        "connectedObjectName": ""
    },
    "Tile": {
        "grid": 9383,
        "tile_type": 0,
        "textureEnum": 38,
        "connectedObjectName": ""
    },
    "Tile": {
        "grid": 8531,
        "tile_type": 0,
        "textureEnum": 38,
        "connectedObjectName": ""
    },
    "Tile": {
        "grid": 9543,
        "tile_type": 0,
        "textureEnum": 38,
        "connectedObjectName": ""
    },
    "Tile": {
        "grid": 8691,
        "tile_type": 0,
        "textureEnum": 38,
        "connectedObjectName": ""
    },
    "Tile": {
        "grid": 8851,
        "tile_type": 0,
        "textureEnum": 38,
        "connectedObjectName": ""
    },
    "Tile": {
        "grid": 7466,
        "tile_type": 0,
        "textureEnum": 38,
        "connectedObjectName": ""
    },
    "Tile": {
        "grid": 7306,
        "tile_type": 0,
        "textureEnum": 38,
        "connectedObjectName": ""
    },
    "Tile": {
        "grid": 9011,
        "tile_type": 0,
        "textureEnum": 38,
        "connectedObjectName": ""
    },
    "Tile": {
        "grid": 9378,
        "tile_type": 0,
        "textureEnum": 38,
        "connectedObjectName": ""
    },
    "Tile": {
        "grid": 9171,
        "tile_type": 0,
        "textureEnum": 38,
        "connectedObjectName": ""
    },
    "Tile": {
        "grid": 9331,
        "tile_type": 0,
        "textureEnum": 38,
        "connectedObjectName": ""
    },
    "Tile": {
        "grid": 9491,
        "tile_type": 0,
        "textureEnum": 38,
        "connectedObjectName": ""
    },
    "Tile": {
        "grid": 9494,
        "tile_type": 0,
        "textureEnum": 38,
        "connectedObjectName": ""
    },
    "Tile": {
        "grid": 9373,
        "tile_type": 0,
        "textureEnum": 38,
        "connectedObjectName": ""
    },
    "Tile": {
        "grid": 9495,
        "tile_type": 0,
        "textureEnum": 38,
        "connectedObjectName": ""
    },
    "Tile": {
        "grid": 9496,
        "tile_type": 0,
        "textureEnum": 38,
        "connectedObjectName": ""
    },
    "Tile": {
        "grid": 8564,
        "tile_type": 0,
        "textureEnum": 38,
        "connectedObjectName": ""
    },
    "Tile": {
        "grid": 9505,
        "tile_type": 0,
        "textureEnum": 38,
        "connectedObjectName": ""
    },
    "Tile": {
        "grid": 9506,
        "tile_type": 0,
        "textureEnum": 38,
        "connectedObjectName": ""
    },
    "Tile": {
        "grid": 9385,
        "tile_type": 0,
        "textureEnum": 38,
        "connectedObjectName": ""
    },
    "Tile": {
        "grid": 9508,
        "tile_type": 0,
        "textureEnum": 38,
        "connectedObjectName": ""
    },
    "Tile": {
        "grid": 9379,
        "tile_type": 0,
        "textureEnum": 38,
        "connectedObjectName": ""
    },
    "Tile": {
        "grid": 9511,
        "tile_type": 0,
        "textureEnum": 38,
        "connectedObjectName": ""
    },
    "Tile": {
        "grid": 8894,
        "tile_type": 0,
        "textureEnum": 38,
        "connectedObjectName": ""
    },
    "Tile": {
        "grid": 9512,
        "tile_type": 0,
        "textureEnum": 38,
        "connectedObjectName": ""
    },
    "Tile": {
        "grid": 9513,
        "tile_type": 0,
        "textureEnum": 38,
        "connectedObjectName": ""
    },
    "Tile": {
        "grid": 8884,
        "tile_type": 0,
        "textureEnum": 38,
        "connectedObjectName": ""
    },
    "Tile": {
        "grid": 9515,
        "tile_type": 0,
        "textureEnum": 38,
        "connectedObjectName": ""
    },
    "Tile": {
        "grid": 9503,
        "tile_type": 0,
        "textureEnum": 38,
        "connectedObjectName": ""
    },
    "Tile": {
        "grid": 9502,
        "tile_type": 0,
        "textureEnum": 38,
        "connectedObjectName": ""
    },
    "Tile": {
        "grid": 9500,
        "tile_type": 0,
        "textureEnum": 38,
        "connectedObjectName": ""
    },
    "Tile": {
        "grid": 9371,
        "tile_type": 0,
        "textureEnum": 38,
        "connectedObjectName": ""
    },
    "Tile": {
        "grid": 9499,
        "tile_type": 0,
        "textureEnum": 38,
        "connectedObjectName": ""
    },
    "Tile": {
        "grid": 9526,
        "tile_type": 0,
        "textureEnum": 38,
        "connectedObjectName": ""
    },
    "Tile": {
        "grid": 9527,
        "tile_type": 0,
        "textureEnum": 38,
        "connectedObjectName": ""
    },
    "Tile": {
        "grid": 9528,
        "tile_type": 0,
        "textureEnum": 38,
        "connectedObjectName": ""
    },
    "Tile": {
        "grid": 9351,
        "tile_type": 0,
        "textureEnum": 38,
        "connectedObjectName": ""
    },
    "Tile": {
        "grid": 9530,
        "tile_type": 0,
        "textureEnum": 38,
        "connectedObjectName": ""
    },
    "Tile": {
        "grid": 9546,
        "tile_type": 0,
        "textureEnum": 38,
        "connectedObjectName": ""
    },
    "Tile": {
        "grid": 8575,
        "tile_type": 0,
        "textureEnum": 38,
        "connectedObjectName": ""
    },
    "Tile": {
        "grid": 9547,
        "tile_type": 0,
        "textureEnum": 38,
        "connectedObjectName": ""
    },
    "Tile": {
        "grid": 7619,
        "tile_type": 0,
        "textureEnum": 38,
        "connectedObjectName": ""
    },
    "Tile": {
        "grid": 9545,
        "tile_type": 0,
        "textureEnum": 38,
        "connectedObjectName": ""
    },
    "Tile": {
        "grid": 9544,
        "tile_type": 0,
        "textureEnum": 38,
        "connectedObjectName": ""
    },
    "Tile": {
        "grid": 9540,
        "tile_type": 0,
        "textureEnum": 38,
        "connectedObjectName": ""
    },
    "Tile": {
        "grid": 9539,
        "tile_type": 0,
        "textureEnum": 38,
        "connectedObjectName": ""
    },
    "Tile": {
        "grid": 8567,
        "tile_type": 0,
        "textureEnum": 38,
        "connectedObjectName": ""
    },
    "Tile": {
        "grid": 9538,
        "tile_type": 0,
        "textureEnum": 38,
        "connectedObjectName": ""
    },
    "Tile": {
        "grid": 9537,
        "tile_type": 0,
        "textureEnum": 38,
        "connectedObjectName": ""
    },
    "Tile": {
        "grid": 9536,
        "tile_type": 0,
        "textureEnum": 38,
        "connectedObjectName": ""
    },
    "Tile": {
        "grid": 8411,
        "tile_type": 0,
        "textureEnum": 38,
        "connectedObjectName": ""
    },
    "Tile": {
        "grid": 9535,
        "tile_type": 0,
        "textureEnum": 38,
        "connectedObjectName": ""
    },
    "Tile": {
        "grid": 9534,
        "tile_type": 0,
        "textureEnum": 38,
        "connectedObjectName": ""
    },
    "Tile": {
        "grid": 9533,
        "tile_type": 0,
        "textureEnum": 38,
        "connectedObjectName": ""
    },
    "Tile": {
        "grid": 8255,
        "tile_type": 0,
        "textureEnum": 38,
        "connectedObjectName": ""
    },
    "Tile": {
        "grid": 9227,
        "tile_type": 0,
        "textureEnum": 38,
        "connectedObjectName": ""
    },
    "Tile": {
        "grid": 7299,
        "tile_type": 0,
        "textureEnum": 38,
        "connectedObjectName": ""
    },
    "Tile": {
        "grid": 8427,
        "tile_type": 0,
        "textureEnum": 38,
        "connectedObjectName": ""
    },
    "Tile": {
        "grid": 9375,
        "tile_type": 0,
        "textureEnum": 38,
        "connectedObjectName": ""
    },
    "Tile": {
        "grid": 8267,
        "tile_type": 0,
        "textureEnum": 38,
        "connectedObjectName": ""
    },
    "Tile": {
        "grid": 8107,
        "tile_type": 0,
        "textureEnum": 38,
        "connectedObjectName": ""
    },
    "Tile": {
        "grid": 8907,
        "tile_type": 0,
        "textureEnum": 38,
        "connectedObjectName": ""
    },
    "Tile": {
        "grid": 9036,
        "tile_type": 0,
        "textureEnum": 38,
        "connectedObjectName": ""
    },
    "Tile": {
        "grid": 7140,
        "tile_type": 0,
        "textureEnum": 38,
        "connectedObjectName": ""
    },
    "Tile": {
        "grid": 8747,
        "tile_type": 0,
        "textureEnum": 38,
        "connectedObjectName": ""
    },
    "Tile": {
        "grid": 9067,
        "tile_type": 0,
        "textureEnum": 38,
        "connectedObjectName": ""
    },
    "Tile": {
        "grid": 9370,
        "tile_type": 0,
        "textureEnum": 38,
        "connectedObjectName": ""
    },
    "Tile": {
        "grid": 9522,
        "tile_type": 0,
        "textureEnum": 38,
        "connectedObjectName": ""
    },
    "Tile": {
        "grid": 9523,
        "tile_type": 0,
        "textureEnum": 38,
        "connectedObjectName": ""
    },
    "Tile": {
        "grid": 9524,
        "tile_type": 0,
        "textureEnum": 38,
        "connectedObjectName": ""
    },
    "Tile": {
        "grid": 9352,
        "tile_type": 0,
        "textureEnum": 38,
        "connectedObjectName": ""
    },
    "Tile": {
        "grid": 8420,
        "tile_type": 0,
        "textureEnum": 38,
        "connectedObjectName": ""
    },
    "Tile": {
        "grid": 9353,
        "tile_type": 0,
        "textureEnum": 38,
        "connectedObjectName": ""
    },
    "Tile": {
        "grid": 8421,
        "tile_type": 0,
        "textureEnum": 38,
        "connectedObjectName": ""
    },
    "Tile": {
        "grid": 9355,
        "tile_type": 0,
        "textureEnum": 38,
        "connectedObjectName": ""
    },
    "Tile": {
        "grid": 9356,
        "tile_type": 0,
        "textureEnum": 38,
        "connectedObjectName": ""
    },
    "Tile": {
        "grid": 9359,
        "tile_type": 0,
        "textureEnum": 38,
        "connectedObjectName": ""
    },
    "Tile": {
        "grid": 9364,
        "tile_type": 0,
        "textureEnum": 38,
        "connectedObjectName": ""
    },
    "Tile": {
        "grid": 9365,
        "tile_type": 0,
        "textureEnum": 38,
        "connectedObjectName": ""
    },
    "Tile": {
        "grid": 9366,
        "tile_type": 0,
        "textureEnum": 38,
        "connectedObjectName": ""
    },
    "Tile": {
        "grid": 9367,
        "tile_type": 0,
        "textureEnum": 38,
        "connectedObjectName": ""
    },
    "Tile": {
        "grid": 8419,
        "tile_type": 0,
        "textureEnum": 38,
        "connectedObjectName": ""
    },
    "Tile": {
        "grid": 9368,
        "tile_type": 0,
        "textureEnum": 38,
        "connectedObjectName": ""
    },
    "Tile": {
        "grid": 9372,
        "tile_type": 0,
        "textureEnum": 38,
        "connectedObjectName": ""
    },
    "Tile": {
        "grid": 7941,
        "tile_type": 0,
        "textureEnum": 38,
        "connectedObjectName": ""
    },
    "Tile": {
        "grid": 9374,
        "tile_type": 0,
        "textureEnum": 38,
        "connectedObjectName": ""
    },
    "Tile": {
        "grid": 9376,
        "tile_type": 0,
        "textureEnum": 38,
        "connectedObjectName": ""
    },
    "Tile": {
        "grid": 9377,
        "tile_type": 0,
        "textureEnum": 38,
        "connectedObjectName": ""
    },
    "Tile": {
        "grid": 7944,
        "tile_type": 0,
        "textureEnum": 38,
        "connectedObjectName": ""
    },
    "Tile": {
        "grid": 9380,
        "tile_type": 0,
        "textureEnum": 38,
        "connectedObjectName": ""
    },
    "Tile": {
        "grid": 8264,
        "tile_type": 0,
        "textureEnum": 38,
        "connectedObjectName": ""
    },
    "Tile": {
        "grid": 9382,
        "tile_type": 0,
        "textureEnum": 38,
        "connectedObjectName": ""
    },
    "Tile": {
        "grid": 8266,
        "tile_type": 0,
        "textureEnum": 38,
        "connectedObjectName": ""
    },
    "Tile": {
        "grid": 7621,
        "tile_type": 0,
        "textureEnum": 38,
        "connectedObjectName": ""
    },
    "Tile": {
        "grid": 9386,
        "tile_type": 0,
        "textureEnum": 38,
        "connectedObjectName": ""
    },
    "Tile": {
        "grid": 9384,
        "tile_type": 0,
        "textureEnum": 38,
        "connectedObjectName": ""
    },
    "Tile": {
        "grid": 7615,
        "tile_type": 0,
        "textureEnum": 38,
        "connectedObjectName": ""
    },
    "Tile": {
        "grid": 9360,
        "tile_type": 0,
        "textureEnum": 38,
        "connectedObjectName": ""
    },
    "Tile": {
        "grid": 9194,
        "tile_type": 0,
        "textureEnum": 38,
        "connectedObjectName": ""
    },
    "Tile": {
        "grid": 9197,
        "tile_type": 0,
        "textureEnum": 38,
        "connectedObjectName": ""
    },
    "Tile": {
        "grid": 8105,
        "tile_type": 0,
        "textureEnum": 38,
        "connectedObjectName": ""
    },
    "Tile": {
        "grid": 9198,
        "tile_type": 0,
        "textureEnum": 38,
        "connectedObjectName": ""
    },
    "Tile": {
        "grid": 9200,
        "tile_type": 0,
        "textureEnum": 38,
        "connectedObjectName": ""
    },
    "Tile": {
        "grid": 8257,
        "tile_type": 0,
        "textureEnum": 38,
        "connectedObjectName": ""
    },
    "Tile": {
        "grid": 9203,
        "tile_type": 0,
        "textureEnum": 38,
        "connectedObjectName": ""
    },
    "Tile": {
        "grid": 9204,
        "tile_type": 0,
        "textureEnum": 38,
        "connectedObjectName": ""
    },
    "Tile": {
        "grid": 8261,
        "tile_type": 0,
        "textureEnum": 38,
        "connectedObjectName": ""
    },
    "Tile": {
        "grid": 9206,
        "tile_type": 0,
        "textureEnum": 38,
        "connectedObjectName": ""
    },
    "Tile": {
        "grid": 7624,
        "tile_type": 0,
        "textureEnum": 38,
        "connectedObjectName": ""
    },
    "Tile": {
        "grid": 9207,
        "tile_type": 0,
        "textureEnum": 38,
        "connectedObjectName": ""
    },
    "Tile": {
        "grid": 9209,
        "tile_type": 0,
        "textureEnum": 38,
        "connectedObjectName": ""
    },
    "Tile": {
        "grid": 9210,
        "tile_type": 0,
        "textureEnum": 38,
        "connectedObjectName": ""
    },
    "Tile": {
        "grid": 9211,
        "tile_type": 0,
        "textureEnum": 38,
        "connectedObjectName": ""
    },
    "Tile": {
        "grid": 7625,
        "tile_type": 0,
        "textureEnum": 38,
        "connectedObjectName": ""
    },
    "Tile": {
        "grid": 9212,
        "tile_type": 0,
        "textureEnum": 38,
        "connectedObjectName": ""
    },
    "Tile": {
        "grid": 7618,
        "tile_type": 0,
        "textureEnum": 38,
        "connectedObjectName": ""
    },
    "Tile": {
        "grid": 9213,
        "tile_type": 0,
        "textureEnum": 38,
        "connectedObjectName": ""
    },
    "Tile": {
        "grid": 9214,
        "tile_type": 0,
        "textureEnum": 38,
        "connectedObjectName": ""
    },
    "Tile": {
        "grid": 9215,
        "tile_type": 0,
        "textureEnum": 38,
        "connectedObjectName": ""
    },
    "Tile": {
        "grid": 9216,
        "tile_type": 0,
        "textureEnum": 38,
        "connectedObjectName": ""
    },
    "Tile": {
        "grid": 9217,
        "tile_type": 0,
        "textureEnum": 38,
        "connectedObjectName": ""
    },
    "Tile": {
        "grid": 9218,
        "tile_type": 0,
        "textureEnum": 38,
        "connectedObjectName": ""
    },
    "Tile": {
        "grid": 9219,
        "tile_type": 0,
        "textureEnum": 38,
        "connectedObjectName": ""
    },
    "Tile": {
        "grid": 8247,
        "tile_type": 0,
        "textureEnum": 38,
        "connectedObjectName": ""
    },
    "Tile": {
        "grid": 9048,
        "tile_type": 0,
        "textureEnum": 38,
        "connectedObjectName": ""
    },
    "Tile": {
        "grid": 9221,
        "tile_type": 0,
        "textureEnum": 38,
        "connectedObjectName": ""
    },
    "Tile": {
        "grid": 8092,
        "tile_type": 0,
        "textureEnum": 38,
        "connectedObjectName": ""
    },
    "Tile": {
        "grid": 9222,
        "tile_type": 0,
        "textureEnum": 38,
        "connectedObjectName": ""
    },
    "Tile": {
        "grid": 9224,
        "tile_type": 0,
        "textureEnum": 38,
        "connectedObjectName": ""
    },
    "Tile": {
        "grid": 8097,
        "tile_type": 0,
        "textureEnum": 38,
        "connectedObjectName": ""
    },
    "Tile": {
        "grid": 9225,
        "tile_type": 0,
        "textureEnum": 38,
        "connectedObjectName": ""
    },
    "Tile": {
        "grid": 9226,
        "tile_type": 0,
        "textureEnum": 38,
        "connectedObjectName": ""
    },
    "Tile": {
        "grid": 9053,
        "tile_type": 0,
        "textureEnum": 38,
        "connectedObjectName": ""
    },
    "Tile": {
        "grid": 9050,
        "tile_type": 0,
        "textureEnum": 38,
        "connectedObjectName": ""
    },
    "Tile": {
        "grid": 7304,
        "tile_type": 0,
        "textureEnum": 38,
        "connectedObjectName": ""
    },
    "Tile": {
        "grid": 8886,
        "tile_type": 0,
        "textureEnum": 38,
        "connectedObjectName": ""
    },
    "Tile": {
        "grid": 9046,
        "tile_type": 0,
        "textureEnum": 38,
        "connectedObjectName": ""
    },
    "Tile": {
        "grid": 9045,
        "tile_type": 0,
        "textureEnum": 38,
        "connectedObjectName": ""
    },
    "Tile": {
        "grid": 9044,
        "tile_type": 0,
        "textureEnum": 38,
        "connectedObjectName": ""
    },
    "Tile": {
        "grid": 9037,
        "tile_type": 0,
        "textureEnum": 38,
        "connectedObjectName": ""
    },
    "Tile": {
        "grid": 9038,
        "tile_type": 0,
        "textureEnum": 38,
        "connectedObjectName": ""
    },
    "Tile": {
        "grid": 9040,
        "tile_type": 0,
        "textureEnum": 38,
        "connectedObjectName": ""
    },
    "Tile": {
        "grid": 7779,
        "tile_type": 0,
        "textureEnum": 38,
        "connectedObjectName": ""
    },
    "Tile": {
        "grid": 9041,
        "tile_type": 0,
        "textureEnum": 38,
        "connectedObjectName": ""
    },
    "Tile": {
        "grid": 9047,
        "tile_type": 0,
        "textureEnum": 38,
        "connectedObjectName": ""
    },
    "Tile": {
        "grid": 9049,
        "tile_type": 0,
        "textureEnum": 38,
        "connectedObjectName": ""
    },
    "Tile": {
        "grid": 9051,
        "tile_type": 0,
        "textureEnum": 38,
        "connectedObjectName": ""
    },
    "Tile": {
        "grid": 9054,
        "tile_type": 0,
        "textureEnum": 38,
        "connectedObjectName": ""
    },
    "Tile": {
        "grid": 9055,
        "tile_type": 0,
        "textureEnum": 38,
        "connectedObjectName": ""
    },
    "Tile": {
        "grid": 8410,
        "tile_type": 0,
        "textureEnum": 38,
        "connectedObjectName": ""
    },
    "Tile": {
        "grid": 9056,
        "tile_type": 0,
        "textureEnum": 38,
        "connectedObjectName": ""
    },
    "Tile": {
        "grid": 9057,
        "tile_type": 0,
        "textureEnum": 38,
        "connectedObjectName": ""
    },
    "Tile": {
        "grid": 6986,
        "tile_type": 0,
        "textureEnum": 38,
        "connectedObjectName": ""
    },
    "Tile": {
        "grid": 9058,
        "tile_type": 0,
        "textureEnum": 38,
        "connectedObjectName": ""
    },
    "Tile": {
        "grid": 8102,
        "tile_type": 0,
        "textureEnum": 38,
        "connectedObjectName": ""
    },
    "Tile": {
        "grid": 9060,
        "tile_type": 0,
        "textureEnum": 38,
        "connectedObjectName": ""
    },
    "Tile": {
        "grid": 9061,
        "tile_type": 0,
        "textureEnum": 38,
        "connectedObjectName": ""
    },
    "Tile": {
        "grid": 9063,
        "tile_type": 0,
        "textureEnum": 38,
        "connectedObjectName": ""
    },
    "Tile": {
        "grid": 8418,
        "tile_type": 0,
        "textureEnum": 38,
        "connectedObjectName": ""
    },
    "Tile": {
        "grid": 9065,
        "tile_type": 0,
        "textureEnum": 38,
        "connectedObjectName": ""
    },
    "Tile": {
        "grid": 9066,
        "tile_type": 0,
        "textureEnum": 38,
        "connectedObjectName": ""
    },
    "Tile": {
        "grid": 8879,
        "tile_type": 0,
        "textureEnum": 38,
        "connectedObjectName": ""
    },
    "Tile": {
        "grid": 8881,
        "tile_type": 0,
        "textureEnum": 38,
        "connectedObjectName": ""
    },
    "Tile": {
        "grid": 8882,
        "tile_type": 0,
        "textureEnum": 38,
        "connectedObjectName": ""
    },
    "Tile": {
        "grid": 8093,
        "tile_type": 0,
        "textureEnum": 38,
        "connectedObjectName": ""
    },
    "Tile": {
        "grid": 8883,
        "tile_type": 0,
        "textureEnum": 38,
        "connectedObjectName": ""
    },
    "Tile": {
        "grid": 7936,
        "tile_type": 0,
        "textureEnum": 38,
        "connectedObjectName": ""
    },
    "Tile": {
        "grid": 8885,
        "tile_type": 0,
        "textureEnum": 38,
        "connectedObjectName": ""
    },
    "Tile": {
        "grid": 8090,
        "tile_type": 0,
        "textureEnum": 38,
        "connectedObjectName": ""
    },
    "Tile": {
        "grid": 8888,
        "tile_type": 0,
        "textureEnum": 38,
        "connectedObjectName": ""
    },
    "Tile": {
        "grid": 7302,
        "tile_type": 0,
        "textureEnum": 38,
        "connectedObjectName": ""
    },
    "Tile": {
        "grid": 8889,
        "tile_type": 0,
        "textureEnum": 38,
        "connectedObjectName": ""
    },
    "Tile": {
        "grid": 8890,
        "tile_type": 0,
        "textureEnum": 38,
        "connectedObjectName": ""
    },
    "Tile": {
        "grid": 7305,
        "tile_type": 0,
        "textureEnum": 38,
        "connectedObjectName": ""
    },
    "Tile": {
        "grid": 8891,
        "tile_type": 0,
        "textureEnum": 38,
        "connectedObjectName": ""
    },
    "Tile": {
        "grid": 8895,
        "tile_type": 0,
        "textureEnum": 38,
        "connectedObjectName": ""
    },
    "Tile": {
        "grid": 8896,
        "tile_type": 0,
        "textureEnum": 38,
        "connectedObjectName": ""
    },
    "Tile": {
        "grid": 8897,
        "tile_type": 0,
        "textureEnum": 38,
        "connectedObjectName": ""
    },
    "Tile": {
        "grid": 8898,
        "tile_type": 0,
        "textureEnum": 38,
        "connectedObjectName": ""
    },
    "Tile": {
        "grid": 8899,
        "tile_type": 0,
        "textureEnum": 38,
        "connectedObjectName": ""
    },
    "Tile": {
        "grid": 8900,
        "tile_type": 0,
        "textureEnum": 38,
        "connectedObjectName": ""
    },
    "Tile": {
        "grid": 8901,
        "tile_type": 0,
        "textureEnum": 38,
        "connectedObjectName": ""
    },
    "Tile": {
        "grid": 8902,
        "tile_type": 0,
        "textureEnum": 38,
        "connectedObjectName": ""
    },
    "Tile": {
        "grid": 8571,
        "tile_type": 0,
        "textureEnum": 38,
        "connectedObjectName": ""
    },
    "Tile": {
        "grid": 8903,
        "tile_type": 0,
        "textureEnum": 38,
        "connectedObjectName": ""
    },
    "Tile": {
        "grid": 8905,
        "tile_type": 0,
        "textureEnum": 38,
        "connectedObjectName": ""
    },
    "Tile": {
        "grid": 8720,
        "tile_type": 0,
        "textureEnum": 38,
        "connectedObjectName": ""
    },
    "Tile": {
        "grid": 8721,
        "tile_type": 0,
        "textureEnum": 38,
        "connectedObjectName": ""
    },
    "Tile": {
        "grid": 8576,
        "tile_type": 0,
        "textureEnum": 38,
        "connectedObjectName": ""
    },
    "Tile": {
        "grid": 8722,
        "tile_type": 0,
        "textureEnum": 38,
        "connectedObjectName": ""
    },
    "Tile": {
        "grid": 8723,
        "tile_type": 0,
        "textureEnum": 38,
        "connectedObjectName": ""
    },
    "Tile": {
        "grid": 8096,
        "tile_type": 0,
        "textureEnum": 38,
        "connectedObjectName": ""
    },
    "Tile": {
        "grid": 8724,
        "tile_type": 0,
        "textureEnum": 38,
        "connectedObjectName": ""
    },
    "Tile": {
        "grid": 8725,
        "tile_type": 0,
        "textureEnum": 38,
        "connectedObjectName": ""
    },
    "Tile": {
        "grid": 8580,
        "tile_type": 0,
        "textureEnum": 38,
        "connectedObjectName": ""
    },
    "Tile": {
        "grid": 8726,
        "tile_type": 0,
        "textureEnum": 38,
        "connectedObjectName": ""
    },
    "Tile": {
        "grid": 8727,
        "tile_type": 0,
        "textureEnum": 38,
        "connectedObjectName": ""
    },
    "Tile": {
        "grid": 8108,
        "tile_type": 0,
        "textureEnum": 38,
        "connectedObjectName": ""
    },
    "Tile": {
        "grid": 8728,
        "tile_type": 0,
        "textureEnum": 38,
        "connectedObjectName": ""
    },
    "Tile": {
        "grid": 7772,
        "tile_type": 0,
        "textureEnum": 38,
        "connectedObjectName": ""
    },
    "Tile": {
        "grid": 8729,
        "tile_type": 0,
        "textureEnum": 38,
        "connectedObjectName": ""
    },
    "Tile": {
        "grid": 8584,
        "tile_type": 0,
        "textureEnum": 38,
        "connectedObjectName": ""
    },
    "Tile": {
        "grid": 8730,
        "tile_type": 0,
        "textureEnum": 38,
        "connectedObjectName": ""
    },
    "Tile": {
        "grid": 8731,
        "tile_type": 0,
        "textureEnum": 38,
        "connectedObjectName": ""
    },
    "Tile": {
        "grid": 8735,
        "tile_type": 0,
        "textureEnum": 38,
        "connectedObjectName": ""
    },
    "Tile": {
        "grid": 8736,
        "tile_type": 0,
        "textureEnum": 38,
        "connectedObjectName": ""
    },
    "Tile": {
        "grid": 8737,
        "tile_type": 0,
        "textureEnum": 38,
        "connectedObjectName": ""
    },
    "Tile": {
        "grid": 8415,
        "tile_type": 0,
        "textureEnum": 38,
        "connectedObjectName": ""
    },
    "Tile": {
        "grid": 8738,
        "tile_type": 0,
        "textureEnum": 38,
        "connectedObjectName": ""
    },
    "Tile": {
        "grid": 8408,
        "tile_type": 0,
        "textureEnum": 38,
        "connectedObjectName": ""
    },
    "Tile": {
        "grid": 7782,
        "tile_type": 0,
        "textureEnum": 38,
        "connectedObjectName": ""
    },
    "Tile": {
        "grid": 8739,
        "tile_type": 0,
        "textureEnum": 38,
        "connectedObjectName": ""
    },
    "Tile": {
        "grid": 8740,
        "tile_type": 0,
        "textureEnum": 38,
        "connectedObjectName": ""
    },
    "Tile": {
        "grid": 8741,
        "tile_type": 0,
        "textureEnum": 38,
        "connectedObjectName": ""
    },
    "Tile": {
        "grid": 8742,
        "tile_type": 0,
        "textureEnum": 38,
        "connectedObjectName": ""
    },
    "Tile": {
        "grid": 8412,
        "tile_type": 0,
        "textureEnum": 38,
        "connectedObjectName": ""
    },
    "Tile": {
        "grid": 8743,
        "tile_type": 0,
        "textureEnum": 38,
        "connectedObjectName": ""
    },
    "Tile": {
        "grid": 9662,
        "tile_type": 0,
        "textureEnum": 38,
        "connectedObjectName": ""
    },
    "Tile": {
        "grid": 8562,
        "tile_type": 0,
        "textureEnum": 38,
        "connectedObjectName": ""
    },
    "Tile": {
        "grid": 8563,
        "tile_type": 0,
        "textureEnum": 38,
        "connectedObjectName": ""
    },
    "Tile": {
        "grid": 8568,
        "tile_type": 0,
        "textureEnum": 38,
        "connectedObjectName": ""
    },
    "Tile": {
        "grid": 8569,
        "tile_type": 0,
        "textureEnum": 38,
        "connectedObjectName": ""
    },
    "Tile": {
        "grid": 8570,
        "tile_type": 0,
        "textureEnum": 38,
        "connectedObjectName": ""
    },
    "Tile": {
        "grid": 8572,
        "tile_type": 0,
        "textureEnum": 38,
        "connectedObjectName": ""
    },
    "Tile": {
        "grid": 8573,
        "tile_type": 0,
        "textureEnum": 38,
        "connectedObjectName": ""
    },
    "Tile": {
        "grid": 8574,
        "tile_type": 0,
        "textureEnum": 38,
        "connectedObjectName": ""
    },
    "Tile": {
        "grid": 8578,
        "tile_type": 0,
        "textureEnum": 38,
        "connectedObjectName": ""
    },
    "Tile": {
        "grid": 8579,
        "tile_type": 0,
        "textureEnum": 38,
        "connectedObjectName": ""
    },
    "Tile": {
        "grid": 8423,
        "tile_type": 0,
        "textureEnum": 38,
        "connectedObjectName": ""
    },
    "Tile": {
        "grid": 8585,
        "tile_type": 0,
        "textureEnum": 38,
        "connectedObjectName": ""
    },
    "Tile": {
        "grid": 8583,
        "tile_type": 0,
        "textureEnum": 38,
        "connectedObjectName": ""
    },
    "Tile": {
        "grid": 8248,
        "tile_type": 0,
        "textureEnum": 38,
        "connectedObjectName": ""
    },
    "Tile": {
        "grid": 8582,
        "tile_type": 0,
        "textureEnum": 38,
        "connectedObjectName": ""
    },
    "Tile": {
        "grid": 8404,
        "tile_type": 0,
        "textureEnum": 38,
        "connectedObjectName": ""
    },
    "Tile": {
        "grid": 8405,
        "tile_type": 0,
        "textureEnum": 38,
        "connectedObjectName": ""
    },
    "Tile": {
        "grid": 8406,
        "tile_type": 0,
        "textureEnum": 38,
        "connectedObjectName": ""
    },
    "Tile": {
        "grid": 7784,
        "tile_type": 0,
        "textureEnum": 38,
        "connectedObjectName": ""
    },
    "Tile": {
        "grid": 8407,
        "tile_type": 0,
        "textureEnum": 38,
        "connectedObjectName": ""
    },
    "Tile": {
        "grid": 7933,
        "tile_type": 0,
        "textureEnum": 38,
        "connectedObjectName": ""
    },
    "Tile": {
        "grid": 8416,
        "tile_type": 0,
        "textureEnum": 38,
        "connectedObjectName": ""
    },
    "Tile": {
        "grid": 6984,
        "tile_type": 0,
        "textureEnum": 38,
        "connectedObjectName": ""
    },
    "Tile": {
        "grid": 8417,
        "tile_type": 0,
        "textureEnum": 38,
        "connectedObjectName": ""
    },
    "Tile": {
        "grid": 8100,
        "tile_type": 0,
        "textureEnum": 38,
        "connectedObjectName": ""
    },
    "Tile": {
        "grid": 8425,
        "tile_type": 0,
        "textureEnum": 38,
        "connectedObjectName": ""
    },
    "Tile": {
        "grid": 8409,
        "tile_type": 0,
        "textureEnum": 38,
        "connectedObjectName": ""
    },
    "Tile": {
        "grid": 8246,
        "tile_type": 0,
        "textureEnum": 38,
        "connectedObjectName": ""
    },
    "Tile": {
        "grid": 8251,
        "tile_type": 0,
        "textureEnum": 38,
        "connectedObjectName": ""
    },
    "Tile": {
        "grid": 7141,
        "tile_type": 0,
        "textureEnum": 38,
        "connectedObjectName": ""
    },
    "Tile": {
        "grid": 8252,
        "tile_type": 0,
        "textureEnum": 38,
        "connectedObjectName": ""
    },
    "Tile": {
        "grid": 8253,
        "tile_type": 0,
        "textureEnum": 38,
        "connectedObjectName": ""
    },
    "Tile": {
        "grid": 8258,
        "tile_type": 0,
        "textureEnum": 38,
        "connectedObjectName": ""
    },
    "Tile": {
        "grid": 8259,
        "tile_type": 0,
        "textureEnum": 38,
        "connectedObjectName": ""
    },
    "Tile": {
        "grid": 8262,
        "tile_type": 0,
        "textureEnum": 38,
        "connectedObjectName": ""
    },
    "Tile": {
        "grid": 8088,
        "tile_type": 0,
        "textureEnum": 38,
        "connectedObjectName": ""
    },
    "Tile": {
        "grid": 8089,
        "tile_type": 0,
        "textureEnum": 38,
        "connectedObjectName": ""
    },
    "Tile": {
        "grid": 8091,
        "tile_type": 0,
        "textureEnum": 38,
        "connectedObjectName": ""
    },
    "Tile": {
        "grid": 8094,
        "tile_type": 0,
        "textureEnum": 38,
        "connectedObjectName": ""
    },
    "Tile": {
        "grid": 8098,
        "tile_type": 0,
        "textureEnum": 38,
        "connectedObjectName": ""
    },
    "Tile": {
        "grid": 8099,
        "tile_type": 0,
        "textureEnum": 38,
        "connectedObjectName": ""
    },
    "Tile": {
        "grid": 8101,
        "tile_type": 0,
        "textureEnum": 38,
        "connectedObjectName": ""
    },
    "Tile": {
        "grid": 8104,
        "tile_type": 0,
        "textureEnum": 38,
        "connectedObjectName": ""
    },
    "Tile": {
        "grid": 8106,
        "tile_type": 0,
        "textureEnum": 38,
        "connectedObjectName": ""
    },
    "Tile": {
        "grid": 9656,
        "tile_type": 0,
        "textureEnum": 38,
        "connectedObjectName": ""
    },
    "Tile": {
        "grid": 7931,
        "tile_type": 0,
        "textureEnum": 38,
        "connectedObjectName": ""
    },
    "Tile": {
        "grid": 7932,
        "tile_type": 0,
        "textureEnum": 38,
        "connectedObjectName": ""
    },
    "Tile": {
        "grid": 7946,
        "tile_type": 0,
        "textureEnum": 38,
        "connectedObjectName": ""
    },
    "Tile": {
        "grid": 7937,
        "tile_type": 0,
        "textureEnum": 38,
        "connectedObjectName": ""
    },
    "Tile": {
        "grid": 7774,
        "tile_type": 0,
        "textureEnum": 38,
        "connectedObjectName": ""
    },
    "Tile": {
        "grid": 7776,
        "tile_type": 0,
        "textureEnum": 38,
        "connectedObjectName": ""
    },
    "Tile": {
        "grid": 9673,
        "tile_type": 0,
        "textureEnum": 38,
        "connectedObjectName": ""
    },
    "Tile": {
        "grid": 7778,
        "tile_type": 0,
        "textureEnum": 38,
        "connectedObjectName": ""
    },
    "Tile": {
        "grid": 7780,
        "tile_type": 0,
        "textureEnum": 38,
        "connectedObjectName": ""
    },
    "Tile": {
        "grid": 9661,
        "tile_type": 0,
        "textureEnum": 38,
        "connectedObjectName": ""
    },
    "Tile": {
        "grid": 7785,
        "tile_type": 0,
        "textureEnum": 38,
        "connectedObjectName": ""
    },
    "Tile": {
        "grid": 9664,
        "tile_type": 0,
        "textureEnum": 38,
        "connectedObjectName": ""
    },
    "Tile": {
        "grid": 7786,
        "tile_type": 0,
        "textureEnum": 38,
        "connectedObjectName": ""
    },
    "Tile": {
        "grid": 7616,
        "tile_type": 0,
        "textureEnum": 38,
        "connectedObjectName": ""
    },
    "Tile": {
        "grid": 7617,
        "tile_type": 0,
        "textureEnum": 38,
        "connectedObjectName": ""
    },
    "Tile": {
        "grid": 7620,
        "tile_type": 0,
        "textureEnum": 38,
        "connectedObjectName": ""
    },
    "Tile": {
        "grid": 9548,
        "tile_type": 0,
        "textureEnum": 38,
        "connectedObjectName": ""
    },
    "Tile": {
        "grid": 7626,
        "tile_type": 0,
        "textureEnum": 38,
        "connectedObjectName": ""
    },
    "Tile": {
        "grid": 9698,
        "tile_type": 0,
        "textureEnum": 38,
        "connectedObjectName": ""
    },
    "Tile": {
        "grid": 7456,
        "tile_type": 0,
        "textureEnum": 38,
        "connectedObjectName": ""
    },
    "Tile": {
        "grid": 7459,
        "tile_type": 0,
        "textureEnum": 38,
        "connectedObjectName": ""
    },
    "Tile": {
        "grid": 9707,
        "tile_type": 0,
        "textureEnum": 38,
        "connectedObjectName": ""
    },
    "Tile": {
        "grid": 7460,
        "tile_type": 0,
        "textureEnum": 38,
        "connectedObjectName": ""
    },
    "Tile": {
        "grid": 9708,
        "tile_type": 0,
        "textureEnum": 38,
        "connectedObjectName": ""
    },
    "Tile": {
        "grid": 7461,
        "tile_type": 0,
        "textureEnum": 38,
        "connectedObjectName": ""
    },
    "Tile": {
        "grid": 7462,
        "tile_type": 0,
        "textureEnum": 38,
        "connectedObjectName": ""
    },
    "Tile": {
        "grid": 7464,
        "tile_type": 0,
        "textureEnum": 38,
        "connectedObjectName": ""
    },
    "Tile": {
        "grid": 7301,
        "tile_type": 0,
        "textureEnum": 38,
        "connectedObjectName": ""
    },
    "Tile": {
        "grid": 7142,
        "tile_type": 0,
        "textureEnum": 38,
        "connectedObjectName": ""
    },
    "Tile": {
        "grid": 7144,
        "tile_type": 0,
        "textureEnum": 38,
        "connectedObjectName": ""
    },
    "Tile": {
        "grid": 7145,
        "tile_type": 0,
        "textureEnum": 38,
        "connectedObjectName": ""
    },
    "Tile": {
        "grid": 7146,
        "tile_type": 0,
        "textureEnum": 38,
        "connectedObjectName": ""
    },
    "Tile": {
        "grid": 6983,
        "tile_type": 0,
        "textureEnum": 38,
        "connectedObjectName": ""
    },
    "Tile": {
        "grid": 6985,
        "tile_type": 0,
        "textureEnum": 38,
        "connectedObjectName": ""
    },
    "Tile": {
        "grid": 9651,
        "tile_type": 0,
        "textureEnum": 38,
        "connectedObjectName": ""
    },
    "Tile": {
        "grid": 9652,
        "tile_type": 0,
        "textureEnum": 38,
        "connectedObjectName": ""
    },
    "Tile": {
        "grid": 9654,
        "tile_type": 0,
        "textureEnum": 38,
        "connectedObjectName": ""
    },
    "Tile": {
        "grid": 9655,
        "tile_type": 0,
        "textureEnum": 38,
        "connectedObjectName": ""
    },
    "Tile": {
        "grid": 9657,
        "tile_type": 0,
        "textureEnum": 38,
        "connectedObjectName": ""
    },
    "Tile": {
        "grid": 9658,
        "tile_type": 0,
        "textureEnum": 38,
        "connectedObjectName": ""
    },
    "Tile": {
        "grid": 9659,
        "tile_type": 0,
        "textureEnum": 38,
        "connectedObjectName": ""
    },
    "Tile": {
        "grid": 9660,
        "tile_type": 0,
        "textureEnum": 38,
        "connectedObjectName": ""
    },
    "Tile": {
        "grid": 9663,
        "tile_type": 0,
        "textureEnum": 38,
        "connectedObjectName": ""
    },
    "Tile": {
        "grid": 9665,
        "tile_type": 0,
        "textureEnum": 38,
        "connectedObjectName": ""
    },
    "Tile": {
        "grid": 9666,
        "tile_type": 0,
        "textureEnum": 38,
        "connectedObjectName": ""
    },
    "Tile": {
        "grid": 9667,
        "tile_type": 0,
        "textureEnum": 38,
        "connectedObjectName": ""
    },
    "Tile": {
        "grid": 9668,
        "tile_type": 0,
        "textureEnum": 38,
        "connectedObjectName": ""
    },
    "Tile": {
        "grid": 9669,
        "tile_type": 0,
        "textureEnum": 38,
        "connectedObjectName": ""
    },
    "Tile": {
        "grid": 9670,
        "tile_type": 0,
        "textureEnum": 38,
        "connectedObjectName": ""
    },
    "Tile": {
        "grid": 9671,
        "tile_type": 0,
        "textureEnum": 38,
        "connectedObjectName": ""
    },
    "Tile": {
        "grid": 9672,
        "tile_type": 0,
        "textureEnum": 38,
        "connectedObjectName": ""
    },
    "Tile": {
        "grid": 9675,
        "tile_type": 0,
        "textureEnum": 38,
        "connectedObjectName": ""
    },
    "Tile": {
        "grid": 9676,
        "tile_type": 0,
        "textureEnum": 38,
        "connectedObjectName": ""
    },
    "Tile": {
        "grid": 9677,
        "tile_type": 0,
        "textureEnum": 38,
        "connectedObjectName": ""
    },
    "Tile": {
        "grid": 9688,
        "tile_type": 0,
        "textureEnum": 38,
        "connectedObjectName": ""
    },
    "Tile": {
        "grid": 9690,
        "tile_type": 0,
        "textureEnum": 38,
        "connectedObjectName": ""
    },
    "Tile": {
        "grid": 9692,
        "tile_type": 0,
        "textureEnum": 38,
        "connectedObjectName": ""
    },
    "Tile": {
        "grid": 9694,
        "tile_type": 0,
        "textureEnum": 38,
        "connectedObjectName": ""
    },
    "Tile": {
        "grid": 9695,
        "tile_type": 0,
        "textureEnum": 38,
        "connectedObjectName": ""
    },
    "Tile": {
        "grid": 9696,
        "tile_type": 0,
        "textureEnum": 38,
        "connectedObjectName": ""
    },
    "Tile": {
        "grid": 9699,
        "tile_type": 0,
        "textureEnum": 38,
        "connectedObjectName": ""
    },
    "Tile": {
        "grid": 9700,
        "tile_type": 0,
        "textureEnum": 38,
        "connectedObjectName": ""
    },
    "Tile": {
        "grid": 9701,
        "tile_type": 0,
        "textureEnum": 38,
        "connectedObjectName": ""
    },
    "Tile": {
        "grid": 9705,
        "tile_type": 0,
        "textureEnum": 38,
        "connectedObjectName": ""
    },
    "Tile": {
        "grid": 9706,
        "tile_type": 0,
        "textureEnum": 38,
        "connectedObjectName": ""
    },
    "Tile": {
        "grid": 9703,
        "tile_type": 0,
        "textureEnum": 38,
        "connectedObjectName": ""
    },
    "Tile": {
        "grid": 9693,
        "tile_type": 0,
        "textureEnum": 38,
        "connectedObjectName": ""
    },
    "Tile": {
        "grid": 9697,
        "tile_type": 0,
        "textureEnum": 38,
        "connectedObjectName": ""
    },
    "Tile": {
        "grid": 8268,
        "tile_type": 0,
        "textureEnum": 38,
        "connectedObjectName": ""
    },
    "Tile": {
        "grid": 8428,
        "tile_type": 0,
        "textureEnum": 38,
        "connectedObjectName": ""
    },
    "Tile": {
        "grid": 8748,
        "tile_type": 0,
        "textureEnum": 38,
        "connectedObjectName": ""
    },
    "Tile": {
        "grid": 8908,
        "tile_type": 0,
        "textureEnum": 38,
        "connectedObjectName": ""
    },
    "Tile": {
        "grid": 9068,
        "tile_type": 0,
        "textureEnum": 38,
        "connectedObjectName": ""
    },
    "Tile": {
        "grid": 9388,
        "tile_type": 0,
        "textureEnum": 38,
        "connectedObjectName": ""
    }
}