{
    "Tile": {
        "grid": 5839,
        "tile_type": 1,
        "textureEnum": 46,
        "connectedObjectName": "buttonfortile1"
    },
    "Tile": {
        "grid": 6787,
        "tile_type": 1,
        "textureEnum": 46,
        "connectedObjectName": "buttontilebox"
    },
    "Tile": {
        "grid": 5842,
        "tile_type": 1,
        "textureEnum": 46,
        "connectedObjectName": "buttonfortile1"
    },
    "Tile": {
        "grid": 6790,
        "tile_type": 1,
        "textureEnum": 46,
        "connectedObjectName": "buttontilebox"
    },
    "Tile": {
        "grid": 5213,
        "tile_type": 1,
        "textureEnum": 45,
        "connectedObjectName": "button_laser"
    },
    "Tile": {
        "grid": 6791,
        "tile_type": 1,
        "textureEnum": 46,
        "connectedObjectName": "buttontilebox"
    },
    "Tile": {
        "grid": 5373,
        "tile_type": 1,
        "textureEnum": 45,
        "connectedObjectName": "button_laser"
    },
    "Tile": {
        "grid": 5533,
        "tile_type": 1,
        "textureEnum": 45,
        "connectedObjectName": "button_laser"
    },
    "Tile": {
        "grid": 5693,
        "tile_type": 1,
        "textureEnum": 45,
        "connectedObjectName": "button_laser"
    },
    "Tile": {
        "grid": 6793,
        "tile_type": 1,
        "textureEnum": 46,
        "connectedObjectName": "buttontilebox"
    },
    "Tile": {
        "grid": 5853,
        "tile_type": 1,
        "textureEnum": 41,
        "connectedObjectName": "button_laser"
    },
    "Tile": {
        "grid": 6779,
        "tile_type": 1,
        "textureEnum": 42,
        "connectedObjectName": "buttontilebox"
    },
    "Tile": {
        "grid": 6780,
        "tile_type": 1,
        "textureEnum": 46,
        "connectedObjectName": "buttontilebox"
    },
    "Tile": {
        "grid": 6781,
        "tile_type": 1,
        "textureEnum": 46,
        "connectedObjectName": "buttontilebox"
    },
    "Tile": {
        "grid": 6782,
        "tile_type": 1,
        "textureEnum": 46,
        "connectedObjectName": "buttontilebox"
    },
    "Tile": {
        "grid": 6324,
        "tile_type": 1,
        "textureEnum": 45,
        "connectedObjectName": "buttonfortile1"
    },
    "Tile": {
        "grid": 6783,
        "tile_type": 1,
        "textureEnum": 46,
        "connectedObjectName": "buttontilebox"
    },
    "Tile": {
        "grid": 6004,
        "tile_type": 1,
        "textureEnum": 45,
        "connectedObjectName": "buttonfortile1"
    },
    "Tile": {
        "grid": 6784,
        "tile_type": 1,
        "textureEnum": 46,
        "connectedObjectName": "buttontilebox"
    },
    "Tile": {
        "grid": 6785,
        "tile_type": 1,
        "textureEnum": 46,
        "connectedObjectName": "buttontilebox"
    },
    "Tile": {
        "grid": 6786,
        "tile_type": 1,
        "textureEnum": 46,
        "connectedObjectName": "buttontilebox"
    },
    "Tile": {
        "grid": 6788,
        "tile_type": 1,
        "textureEnum": 46,
        "connectedObjectName": "buttontilebox"
    },
    "Tile": {
        "grid": 6789,
        "tile_type": 1,
        "textureEnum": 46,
        "connectedObjectName": "buttontilebox"
    },
    "Tile": {
        "grid": 6792,
        "tile_type": 1,
        "textureEnum": 46,
        "connectedObjectName": "buttontilebox"
    },
    "Tile": {
        "grid": 6794,
        "tile_type": 1,
        "textureEnum": 46,
        "connectedObjectName": "buttontilebox"
    },
    "Tile": {
        "grid": 6795,
        "tile_type": 1,
        "textureEnum": 46,
        "connectedObjectName": "buttontilebox"
    },
    "Tile": {
        "grid": 6796,
        "tile_type": 1,
        "textureEnum": 46,
        "connectedObjectName": "buttontilebox"
    },
    "Tile": {
        "grid": 6797,
        "tile_type": 1,
        "textureEnum": 46,
        "connectedObjectName": "buttontilebox"
    },
    "Tile": {
        "grid": 6798,
        "tile_type": 1,
        "textureEnum": 46,
        "connectedObjectName": "buttontilebox"
    },
    "Tile": {
        "grid": 6799,
        "tile_type": 1,
        "textureEnum": 46,
        "connectedObjectName": "buttontilebox"
    },
    "Tile": {
        "grid": 6800,
        "tile_type": 1,
        "textureEnum": 46,
        "connectedObjectName": "buttontilebox"
    },
    "Tile": {
        "grid": 5844,
        "tile_type": 1,
        "textureEnum": 44,
        "connectedObjectName": "buttonfortile1"
    },
    "Tile": {
        "grid": 6801,
        "tile_type": 1,
        "textureEnum": 46,
        "connectedObjectName": "buttontilebox"
    },
    "Tile": {
        "grid": 6802,
        "tile_type": 1,
        "textureEnum": 46,
        "connectedObjectName": "buttontilebox"
    },
    "Tile": {
        "grid": 6803,
        "tile_type": 1,
        "textureEnum": 46,
        "connectedObjectName": "buttontilebox"
    },
    "Tile": {
        "grid": 6484,
        "tile_type": 1,
        "textureEnum": 45,
        "connectedObjectName": "buttonfortile1"
    },
    "Tile": {
        "grid": 6164,
        "tile_type": 1,
        "textureEnum": 45,
        "connectedObjectName": "buttonfortile1"
    },
    "Tile": {
        "grid": 5843,
        "tile_type": 1,
        "textureEnum": 46,
        "connectedObjectName": "buttonfortile1"
    },
    "Tile": {
        "grid": 5841,
        "tile_type": 1,
        "textureEnum": 46,
        "connectedObjectName": "buttonfortile1"
    },
    "Tile": {
        "grid": 5840,
        "tile_type": 1,
        "textureEnum": 46,
        "connectedObjectName": "buttonfortile1"
    }
}